^C:\USERS\SWANE\SOURCE\REPOS\GDSTRUCT_MIDTERMS\GDSTRUCT_MIDTERMS\SOURCE.CPP
C:\USERS\SWANE\SOURCE\REPOS\GDSTRUCT_MIDTERMS\GDSTRUCT_MIDTERMS\DEBUG\VC142.PDB
C:\USERS\SWANE\SOURCE\REPOS\GDSTRUCT_MIDTERMS\GDSTRUCT_MIDTERMS\DEBUG\VC142.IDB
C:\USERS\SWANE\SOURCE\REPOS\GDSTRUCT_MIDTERMS\GDSTRUCT_MIDTERMS\DEBUG\SOURCE.OBJ
